{
    "output_directory": "../comparator_tthbb_isovars",
    
    "plots_directory": "../analysis_plots/data_mc_isoVars/20190812",
    
    "title": "Comparison of isolation variables for estimating fakes &nbsp; &ndash; &nbsp; ttH(bb) single lepton channel",
    
    "subtitle": "Distributions of data and total MC background for 4 isolation points (nominal in red). The ratio pad accounts for relative fake contribution and/or MC mis-modelling.",
    
    "placeholder": "./img/no_plot_for_this_combination.png",
    
    "tags": {
            
            "YEAR": { 
                "active": true,
                "htmlLabel": "Year",
                "values": {"20152016": "2015 - 2016", "2017": "2017", "2018": "2018"}
            },
            
            "LEPTON": {
                "active": true,
                "htmlLabel": "Lepton",
                "values": {"el": "Electron", "mu": "Muon"}
            },

            "TIGHT": {
                "active": false,
                "htmlLabel": "Tightness",
                "values": {"tight": "Tight", "loose": "Loose" }
            },
            
            "VAR": {
                "active": true,
                "htmlLabel": "Variables",
                "values": {"HT_jets": "H<sub>T</sub>", "met_met": "Met", "mtw": "Mtw", "lep_pt": "Lepton p<sub>T</sub> (all bins)", "nJets": "N jets", "nBTags_MV2c10_70": "N b-jets @ 70%"}
            },
                        
            "NJETS": {
                "active": true,
                "htmlLabel": "Number of jets",
                "values": {"4ij": " &ge;4 jets", "5ij": " &ge;5 jets"}
            },
            
            "NBJETS": {
                "active": true,
                "htmlLabel": "Number of b-jets",
                "values": {"0b": "&ge;2b @85%", "1ib": "&ge;1b @70%", "2ib": "&ge;2b @70%", "3ib": "&ge;3b @70%", "4ib": "&ge;4b @70%"}
            },
            
            "PTRANGE": {
                "active": true,
                "htmlLabel": "Lepton p<sub>T</sub> bins [GeV]",
                "values": {"pTlepFull": "Full range", "pTlep25-30": "25 - 30", "pTlep30-40": "30 - 40", "pTlep40-60": "40 - 60", "pTlep60-100": "60 - 100", "pTlep100-500": "100 - 500"}
            },
            
            "CUT": {
                "active": true,
                "htmlLabel": "Cuts",
                "values": {"none": "None", "HT_jets_above_200": "H<sub>T</sub> &#60; 200 GeV"}
            }
      }
}
